23-01-2016 04:17:15	Main		TRACE	Logger initialized.
23-01-2016 04:17:15	PropertyReader		TRACE	Opening file: settings/settings.txt
23-01-2016 04:17:15	PropertyReader		INFO	File opened: settings/settings.txt
23-01-2016 04:17:15	PropertyReader		INFO	Loading properties file...
23-01-2016 04:17:15	PropertyReader		INFO	Mapped INFO to LOGGING_LEVEL
23-01-2016 04:17:15	PropertyReader		INFO	Mapped 100 to CAM_BUFFER_SIZE
23-01-2016 04:17:15	PropertyReader		INFO	Mapped 15 to CAM_POLL_FREQUENCY
23-01-2016 04:17:15	PropertyReader		INFO	Mapped 0 to CAM_INDEX
23-01-2016 04:17:15	PropertyReader		DEBUG	Loaded 4 properties successfully
23-01-2016 04:17:15	CameraInterface		INFO	Initializing camera
23-01-2016 04:17:15	CameraInterface		INFO	Opening video capture stream at position 0
